{
  "runtimeTarget": {
    "name": ".NETStandard,Version=v2.0/",
    "signature": ""
  },
  "compilationOptions": {},
  "targets": {
    ".NETStandard,Version=v2.0": {},
    ".NETStandard,Version=v2.0/": {
      "Core/1.0.0": {
        "dependencies": {
          "AutoMapper.Extensions.Microsoft.DependencyInjection": "8.1.0",
          "BCrypt.Net-Next": "4.0.2",
          "FluentValidation": "9.3.0",
          "JWT": "7.3.1",
          "MassTransit": "7.1.5-develop.3276",
          "NETStandard.Library": "2.0.3",
          "System.IdentityModel.Tokens.Jwt": "5.6.0"
        },
        "runtime": {
          "Core.dll": {}
        }
      },
      "AutoMapper/10.1.0": {
        "dependencies": {
          "Microsoft.CSharp": "4.7.0",
          "System.Reflection.Emit": "4.7.0"
        },
        "runtime": {
          "lib/netstandard2.0/AutoMapper.dll": {
            "assemblyVersion": "10.0.0.0",
            "fileVersion": "10.1.0.0"
          }
        }
      },
      "AutoMapper.Extensions.Microsoft.DependencyInjection/8.1.0": {
        "dependencies": {
          "AutoMapper": "10.1.0",
          "Microsoft.Extensions.DependencyInjection.Abstractions": "3.0.0",
          "Microsoft.Extensions.Options": "3.0.0"
        },
        "runtime": {
          "lib/netstandard2.0/AutoMapper.Extensions.Microsoft.DependencyInjection.dll": {
            "assemblyVersion": "8.0.0.0",
            "fileVersion": "8.1.0.0"
          }
        }
      },
      "Automatonymous/5.1.1": {
        "dependencies": {
          "GreenPipes": "4.0.0"
        },
        "runtime": {
          "lib/netstandard2.0/Automatonymous.dll": {
            "assemblyVersion": "5.1.1.0",
            "fileVersion": "5.1.1.0"
          }
        }
      },
      "BCrypt.Net-Next/4.0.2": {
        "dependencies": {
          "System.Memory": "4.5.4"
        },
        "runtime": {
          "lib/netstandard2.0/BCrypt.Net-Next.dll": {
            "assemblyVersion": "4.0.2.0",
            "fileVersion": "4.0.2.0"
          }
        }
      },
      "FluentValidation/9.3.0": {
        "runtime": {
          "lib/netstandard2.0/FluentValidation.dll": {
            "assemblyVersion": "9.0.0.0",
            "fileVersion": "9.3.0.0"
          }
        }
      },
      "GreenPipes/4.0.0": {
        "dependencies": {
          "Microsoft.Bcl.AsyncInterfaces": "1.1.1",
          "System.Reflection.Emit": "4.7.0"
        },
        "runtime": {
          "lib/netstandard2.0/GreenPipes.dll": {
            "assemblyVersion": "4.0.0.0",
            "fileVersion": "4.0.0.0"
          }
        }
      },
      "JWT/7.3.1": {
        "dependencies": {
          "Newtonsoft.Json": "11.0.2",
          "System.ComponentModel.Primitives": "4.3.0",
          "System.Reflection.TypeExtensions": "4.7.0",
          "System.Security.Cryptography.Csp": "4.3.0"
        },
        "runtime": {
          "lib/netstandard2.0/JWT.dll": {
            "assemblyVersion": "7.0.0.0",
            "fileVersion": "7.0.0.0"
          }
        }
      },
      "MassTransit/7.1.5-develop.3276": {
        "dependencies": {
          "Automatonymous": "5.1.1",
          "Microsoft.Extensions.Logging.Abstractions": "2.1.1",
          "NewId": "3.0.3",
          "Newtonsoft.Json": "11.0.2",
          "Newtonsoft.Json.Bson": "1.0.1",
          "System.Diagnostics.DiagnosticSource": "4.7.1",
          "System.Reflection.Emit": "4.7.0",
          "System.Reflection.Emit.Lightweight": "4.7.0",
          "System.Reflection.Extensions": "4.3.0",
          "System.Runtime.Loader": "4.3.0",
          "System.Threading.Channels": "4.7.1",
          "System.Threading.ThreadPool": "4.3.0",
          "System.ValueTuple": "4.5.0",
          "System.Xml.ReaderWriter": "4.3.1"
        },
        "runtime": {
          "lib/netstandard2.0/MassTransit.dll": {
            "assemblyVersion": "7.1.5.0",
            "fileVersion": "7.1.5.0"
          }
        }
      },
      "Microsoft.Bcl.AsyncInterfaces/1.1.1": {
        "dependencies": {
          "System.Threading.Tasks.Extensions": "4.5.4"
        },
        "runtime": {
          "lib/netstandard2.0/Microsoft.Bcl.AsyncInterfaces.dll": {
            "assemblyVersion": "1.0.0.0",
            "fileVersion": "4.700.20.21406"
          }
        }
      },
      "Microsoft.CSharp/4.7.0": {
        "runtime": {
          "lib/netstandard2.0/Microsoft.CSharp.dll": {
            "assemblyVersion": "4.0.5.0",
            "fileVersion": "4.700.19.56404"
          }
        }
      },
      "Microsoft.Extensions.DependencyInjection.Abstractions/3.0.0": {
        "runtime": {
          "lib/netstandard2.0/Microsoft.Extensions.DependencyInjection.Abstractions.dll": {
            "assemblyVersion": "3.0.0.0",
            "fileVersion": "3.0.19.46305"
          }
        }
      },
      "Microsoft.Extensions.Logging.Abstractions/2.1.1": {
        "runtime": {
          "lib/netstandard2.0/Microsoft.Extensions.Logging.Abstractions.dll": {
            "assemblyVersion": "2.1.1.0",
            "fileVersion": "2.1.1.18157"
          }
        }
      },
      "Microsoft.Extensions.Options/3.0.0": {
        "dependencies": {
          "Microsoft.Extensions.DependencyInjection.Abstractions": "3.0.0",
          "Microsoft.Extensions.Primitives": "3.0.0",
          "System.ComponentModel.Annotations": "4.6.0"
        },
        "runtime": {
          "lib/netstandard2.0/Microsoft.Extensions.Options.dll": {
            "assemblyVersion": "3.0.0.0",
            "fileVersion": "3.0.19.46305"
          }
        }
      },
      "Microsoft.Extensions.Primitives/3.0.0": {
        "dependencies": {
          "System.Memory": "4.5.4",
          "System.Runtime.CompilerServices.Unsafe": "4.6.0"
        },
        "runtime": {
          "lib/netstandard2.0/Microsoft.Extensions.Primitives.dll": {
            "assemblyVersion": "3.0.0.0",
            "fileVersion": "3.0.19.46305"
          }
        }
      },
      "Microsoft.IdentityModel.JsonWebTokens/5.6.0": {
        "dependencies": {
          "Microsoft.IdentityModel.Tokens": "5.6.0",
          "Newtonsoft.Json": "11.0.2"
        },
        "runtime": {
          "lib/netstandard2.0/Microsoft.IdentityModel.JsonWebTokens.dll": {
            "assemblyVersion": "5.6.0.0",
            "fileVersion": "5.6.0.61018"
          }
        }
      },
      "Microsoft.IdentityModel.Logging/5.6.0": {
        "runtime": {
          "lib/netstandard2.0/Microsoft.IdentityModel.Logging.dll": {
            "assemblyVersion": "5.6.0.0",
            "fileVersion": "5.6.0.61018"
          }
        }
      },
      "Microsoft.IdentityModel.Tokens/5.6.0": {
        "dependencies": {
          "Microsoft.IdentityModel.Logging": "5.6.0",
          "Newtonsoft.Json": "11.0.2",
          "System.Security.Cryptography.Cng": "4.5.0"
        },
        "runtime": {
          "lib/netstandard2.0/Microsoft.IdentityModel.Tokens.dll": {
            "assemblyVersion": "5.6.0.0",
            "fileVersion": "5.6.0.61018"
          }
        }
      },
      "Microsoft.NETCore.Platforms/1.1.0": {},
      "Microsoft.NETCore.Targets/1.1.0": {},
      "NETStandard.Library/2.0.3": {
        "dependencies": {
          "Microsoft.NETCore.Platforms": "1.1.0"
        }
      },
      "NewId/3.0.3": {
        "runtime": {
          "lib/netstandard2.0/NewId.dll": {
            "assemblyVersion": "3.0.3.0",
            "fileVersion": "3.0.3.0"
          }
        }
      },
      "Newtonsoft.Json/11.0.2": {
        "runtime": {
          "lib/netstandard2.0/Newtonsoft.Json.dll": {
            "assemblyVersion": "11.0.0.0",
            "fileVersion": "11.0.2.21924"
          }
        }
      },
      "Newtonsoft.Json.Bson/1.0.1": {
        "dependencies": {
          "NETStandard.Library": "2.0.3",
          "Newtonsoft.Json": "11.0.2"
        },
        "runtime": {
          "lib/netstandard1.3/Newtonsoft.Json.Bson.dll": {
            "assemblyVersion": "1.0.0.0",
            "fileVersion": "1.0.1.20722"
          }
        }
      },
      "runtime.debian.8-x64.runtime.native.System.Security.Cryptography.OpenSsl/4.3.0": {},
      "runtime.fedora.23-x64.runtime.native.System.Security.Cryptography.OpenSsl/4.3.0": {},
      "runtime.fedora.24-x64.runtime.native.System.Security.Cryptography.OpenSsl/4.3.0": {},
      "runtime.native.System.Security.Cryptography.Apple/4.3.0": {
        "dependencies": {
          "runtime.osx.10.10-x64.runtime.native.System.Security.Cryptography.Apple": "4.3.0"
        }
      },
      "runtime.native.System.Security.Cryptography.OpenSsl/4.3.0": {
        "dependencies": {
          "runtime.debian.8-x64.runtime.native.System.Security.Cryptography.OpenSsl": "4.3.0",
          "runtime.fedora.23-x64.runtime.native.System.Security.Cryptography.OpenSsl": "4.3.0",
          "runtime.fedora.24-x64.runtime.native.System.Security.Cryptography.OpenSsl": "4.3.0",
          "runtime.opensuse.13.2-x64.runtime.native.System.Security.Cryptography.OpenSsl": "4.3.0",
          "runtime.opensuse.42.1-x64.runtime.native.System.Security.Cryptography.OpenSsl": "4.3.0",
          "runtime.osx.10.10-x64.runtime.native.System.Security.Cryptography.OpenSsl": "4.3.0",
          "runtime.rhel.7-x64.runtime.native.System.Security.Cryptography.OpenSsl": "4.3.0",
          "runtime.ubuntu.14.04-x64.runtime.native.System.Security.Cryptography.OpenSsl": "4.3.0",
          "runtime.ubuntu.16.04-x64.runtime.native.System.Security.Cryptography.OpenSsl": "4.3.0",
          "runtime.ubuntu.16.10-x64.runtime.native.System.Security.Cryptography.OpenSsl": "4.3.0"
        }
      },
      "runtime.opensuse.13.2-x64.runtime.native.System.Security.Cryptography.OpenSsl/4.3.0": {},
      "runtime.opensuse.42.1-x64.runtime.native.System.Security.Cryptography.OpenSsl/4.3.0": {},
      "runtime.osx.10.10-x64.runtime.native.System.Security.Cryptography.Apple/4.3.0": {},
      "runtime.osx.10.10-x64.runtime.native.System.Security.Cryptography.OpenSsl/4.3.0": {},
      "runtime.rhel.7-x64.runtime.native.System.Security.Cryptography.OpenSsl/4.3.0": {},
      "runtime.ubuntu.14.04-x64.runtime.native.System.Security.Cryptography.OpenSsl/4.3.0": {},
      "runtime.ubuntu.16.04-x64.runtime.native.System.Security.Cryptography.OpenSsl/4.3.0": {},
      "runtime.ubuntu.16.10-x64.runtime.native.System.Security.Cryptography.OpenSsl/4.3.0": {},
      "System.Buffers/4.5.1": {
        "runtime": {
          "lib/netstandard2.0/System.Buffers.dll": {
            "assemblyVersion": "4.0.3.0",
            "fileVersion": "4.6.28619.1"
          }
        }
      },
      "System.Collections/4.3.0": {
        "dependencies": {
          "Microsoft.NETCore.Platforms": "1.1.0",
          "Microsoft.NETCore.Targets": "1.1.0",
          "System.Runtime": "4.3.0"
        }
      },
      "System.Collections.Concurrent/4.3.0": {
        "dependencies": {
          "System.Collections": "4.3.0",
          "System.Diagnostics.Debug": "4.3.0",
          "System.Diagnostics.Tracing": "4.3.0",
          "System.Globalization": "4.3.0",
          "System.Reflection": "4.3.0",
          "System.Resources.ResourceManager": "4.3.0",
          "System.Runtime": "4.3.0",
          "System.Runtime.Extensions": "4.3.0",
          "System.Threading": "4.3.0",
          "System.Threading.Tasks": "4.3.0"
        },
        "runtime": {
          "lib/netstandard1.3/System.Collections.Concurrent.dll": {
            "assemblyVersion": "4.0.13.0",
            "fileVersion": "4.6.24705.1"
          }
        }
      },
      "System.ComponentModel/4.3.0": {
        "dependencies": {
          "System.Runtime": "4.3.0"
        },
        "runtime": {
          "lib/netstandard1.3/System.ComponentModel.dll": {
            "assemblyVersion": "4.0.2.0",
            "fileVersion": "4.6.24705.1"
          }
        }
      },
      "System.ComponentModel.Annotations/4.6.0": {
        "runtime": {
          "lib/netstandard2.0/System.ComponentModel.Annotations.dll": {
            "assemblyVersion": "4.2.1.0",
            "fileVersion": "4.6.26515.6"
          }
        }
      },
      "System.ComponentModel.Primitives/4.3.0": {
        "dependencies": {
          "System.ComponentModel": "4.3.0",
          "System.Resources.ResourceManager": "4.3.0",
          "System.Runtime": "4.3.0"
        },
        "runtime": {
          "lib/netstandard1.0/System.ComponentModel.Primitives.dll": {
            "assemblyVersion": "4.1.1.0",
            "fileVersion": "4.6.24705.1"
          }
        }
      },
      "System.Diagnostics.Debug/4.3.0": {
        "dependencies": {
          "Microsoft.NETCore.Platforms": "1.1.0",
          "Microsoft.NETCore.Targets": "1.1.0",
          "System.Runtime": "4.3.0"
        }
      },
      "System.Diagnostics.DiagnosticSource/4.7.1": {
        "dependencies": {
          "System.Memory": "4.5.4"
        },
        "runtime": {
          "lib/netstandard1.3/System.Diagnostics.DiagnosticSource.dll": {
            "assemblyVersion": "4.0.5.0",
            "fileVersion": "4.700.20.21406"
          }
        }
      },
      "System.Diagnostics.Tracing/4.3.0": {
        "dependencies": {
          "Microsoft.NETCore.Platforms": "1.1.0",
          "Microsoft.NETCore.Targets": "1.1.0",
          "System.Runtime": "4.3.0"
        }
      },
      "System.Globalization/4.3.0": {
        "dependencies": {
          "Microsoft.NETCore.Platforms": "1.1.0",
          "Microsoft.NETCore.Targets": "1.1.0",
          "System.Runtime": "4.3.0"
        }
      },
      "System.IdentityModel.Tokens.Jwt/5.6.0": {
        "dependencies": {
          "Microsoft.IdentityModel.JsonWebTokens": "5.6.0",
          "Microsoft.IdentityModel.Tokens": "5.6.0",
          "Newtonsoft.Json": "11.0.2"
        },
        "runtime": {
          "lib/netstandard2.0/System.IdentityModel.Tokens.Jwt.dll": {
            "assemblyVersion": "5.6.0.0",
            "fileVersion": "5.6.0.61018"
          }
        }
      },
      "System.IO/4.3.0": {
        "dependencies": {
          "Microsoft.NETCore.Platforms": "1.1.0",
          "Microsoft.NETCore.Targets": "1.1.0",
          "System.Runtime": "4.3.0",
          "System.Text.Encoding": "4.3.0",
          "System.Threading.Tasks": "4.3.0"
        }
      },
      "System.IO.FileSystem/4.3.0": {
        "dependencies": {
          "Microsoft.NETCore.Platforms": "1.1.0",
          "Microsoft.NETCore.Targets": "1.1.0",
          "System.IO": "4.3.0",
          "System.IO.FileSystem.Primitives": "4.3.0",
          "System.Runtime": "4.3.0",
          "System.Runtime.Handles": "4.3.0",
          "System.Text.Encoding": "4.3.0",
          "System.Threading.Tasks": "4.3.0"
        }
      },
      "System.IO.FileSystem.Primitives/4.3.0": {
        "dependencies": {
          "System.Runtime": "4.3.0"
        },
        "runtime": {
          "lib/netstandard1.3/System.IO.FileSystem.Primitives.dll": {
            "assemblyVersion": "4.0.2.0",
            "fileVersion": "4.6.24705.1"
          }
        }
      },
      "System.Linq/4.3.0": {
        "dependencies": {
          "System.Collections": "4.3.0",
          "System.Diagnostics.Debug": "4.3.0",
          "System.Resources.ResourceManager": "4.3.0",
          "System.Runtime": "4.3.0",
          "System.Runtime.Extensions": "4.3.0"
        },
        "runtime": {
          "lib/netstandard1.6/System.Linq.dll": {
            "assemblyVersion": "4.1.1.0",
            "fileVersion": "4.6.24705.1"
          }
        }
      },
      "System.Memory/4.5.4": {
        "dependencies": {
          "System.Buffers": "4.5.1",
          "System.Numerics.Vectors": "4.4.0",
          "System.Runtime.CompilerServices.Unsafe": "4.6.0"
        },
        "runtime": {
          "lib/netstandard2.0/System.Memory.dll": {
            "assemblyVersion": "4.0.1.1",
            "fileVersion": "4.6.28619.1"
          }
        }
      },
      "System.Numerics.Vectors/4.4.0": {
        "runtime": {
          "lib/netstandard2.0/System.Numerics.Vectors.dll": {
            "assemblyVersion": "4.1.3.0",
            "fileVersion": "4.6.25519.3"
          }
        }
      },
      "System.Reflection/4.3.0": {
        "dependencies": {
          "Microsoft.NETCore.Platforms": "1.1.0",
          "Microsoft.NETCore.Targets": "1.1.0",
          "System.IO": "4.3.0",
          "System.Reflection.Primitives": "4.3.0",
          "System.Runtime": "4.3.0"
        }
      },
      "System.Reflection.Emit/4.7.0": {
        "dependencies": {
          "System.Reflection.Emit.ILGeneration": "4.7.0"
        },
        "runtime": {
          "lib/netstandard2.0/System.Reflection.Emit.dll": {
            "assemblyVersion": "4.0.0.0",
            "fileVersion": "4.700.19.56404"
          }
        }
      },
      "System.Reflection.Emit.ILGeneration/4.7.0": {
        "runtime": {
          "lib/netstandard2.0/System.Reflection.Emit.ILGeneration.dll": {
            "assemblyVersion": "4.0.0.0",
            "fileVersion": "4.700.19.56404"
          }
        }
      },
      "System.Reflection.Emit.Lightweight/4.7.0": {
        "dependencies": {
          "System.Reflection.Emit.ILGeneration": "4.7.0"
        },
        "runtime": {
          "lib/netstandard2.0/System.Reflection.Emit.Lightweight.dll": {
            "assemblyVersion": "4.0.0.0",
            "fileVersion": "4.700.19.56404"
          }
        }
      },
      "System.Reflection.Extensions/4.3.0": {
        "dependencies": {
          "Microsoft.NETCore.Platforms": "1.1.0",
          "Microsoft.NETCore.Targets": "1.1.0",
          "System.Reflection": "4.3.0",
          "System.Runtime": "4.3.0"
        }
      },
      "System.Reflection.Primitives/4.3.0": {
        "dependencies": {
          "Microsoft.NETCore.Platforms": "1.1.0",
          "Microsoft.NETCore.Targets": "1.1.0",
          "System.Runtime": "4.3.0"
        }
      },
      "System.Reflection.TypeExtensions/4.7.0": {
        "runtime": {
          "lib/netstandard2.0/System.Reflection.TypeExtensions.dll": {
            "assemblyVersion": "4.1.5.0",
            "fileVersion": "4.700.19.56404"
          }
        }
      },
      "System.Resources.ResourceManager/4.3.0": {
        "dependencies": {
          "Microsoft.NETCore.Platforms": "1.1.0",
          "Microsoft.NETCore.Targets": "1.1.0",
          "System.Globalization": "4.3.0",
          "System.Reflection": "4.3.0",
          "System.Runtime": "4.3.0"
        }
      },
      "System.Runtime/4.3.0": {
        "dependencies": {
          "Microsoft.NETCore.Platforms": "1.1.0",
          "Microsoft.NETCore.Targets": "1.1.0"
        }
      },
      "System.Runtime.CompilerServices.Unsafe/4.6.0": {
        "runtime": {
          "lib/netstandard2.0/System.Runtime.CompilerServices.Unsafe.dll": {
            "assemblyVersion": "4.0.5.0",
            "fileVersion": "4.0.0.0"
          }
        }
      },
      "System.Runtime.Extensions/4.3.0": {
        "dependencies": {
          "Microsoft.NETCore.Platforms": "1.1.0",
          "Microsoft.NETCore.Targets": "1.1.0",
          "System.Runtime": "4.3.0"
        }
      },
      "System.Runtime.Handles/4.3.0": {
        "dependencies": {
          "Microsoft.NETCore.Platforms": "1.1.0",
          "Microsoft.NETCore.Targets": "1.1.0",
          "System.Runtime": "4.3.0"
        }
      },
      "System.Runtime.InteropServices/4.3.0": {
        "dependencies": {
          "Microsoft.NETCore.Platforms": "1.1.0",
          "Microsoft.NETCore.Targets": "1.1.0",
          "System.Reflection": "4.3.0",
          "System.Reflection.Primitives": "4.3.0",
          "System.Runtime": "4.3.0",
          "System.Runtime.Handles": "4.3.0"
        }
      },
      "System.Runtime.Loader/4.3.0": {
        "dependencies": {
          "System.IO": "4.3.0",
          "System.Reflection": "4.3.0",
          "System.Runtime": "4.3.0"
        },
        "runtime": {
          "lib/netstandard1.5/System.Runtime.Loader.dll": {
            "assemblyVersion": "4.0.1.0",
            "fileVersion": "4.6.24705.1"
          }
        }
      },
      "System.Runtime.Numerics/4.3.0": {
        "dependencies": {
          "System.Globalization": "4.3.0",
          "System.Resources.ResourceManager": "4.3.0",
          "System.Runtime": "4.3.0",
          "System.Runtime.Extensions": "4.3.0"
        },
        "runtime": {
          "lib/netstandard1.3/System.Runtime.Numerics.dll": {
            "assemblyVersion": "4.0.2.0",
            "fileVersion": "4.6.24705.1"
          }
        }
      },
      "System.Security.Cryptography.Algorithms/4.3.0": {
        "dependencies": {
          "Microsoft.NETCore.Platforms": "1.1.0",
          "System.Collections": "4.3.0",
          "System.IO": "4.3.0",
          "System.Resources.ResourceManager": "4.3.0",
          "System.Runtime": "4.3.0",
          "System.Runtime.Extensions": "4.3.0",
          "System.Runtime.Handles": "4.3.0",
          "System.Runtime.InteropServices": "4.3.0",
          "System.Runtime.Numerics": "4.3.0",
          "System.Security.Cryptography.Encoding": "4.3.0",
          "System.Security.Cryptography.Primitives": "4.3.0",
          "System.Text.Encoding": "4.3.0",
          "runtime.native.System.Security.Cryptography.Apple": "4.3.0",
          "runtime.native.System.Security.Cryptography.OpenSsl": "4.3.0"
        }
      },
      "System.Security.Cryptography.Cng/4.5.0": {
        "runtime": {
          "lib/netstandard2.0/System.Security.Cryptography.Cng.dll": {
            "assemblyVersion": "4.3.0.0",
            "fileVersion": "4.6.26515.6"
          }
        }
      },
      "System.Security.Cryptography.Csp/4.3.0": {
        "dependencies": {
          "Microsoft.NETCore.Platforms": "1.1.0",
          "System.IO": "4.3.0",
          "System.Reflection": "4.3.0",
          "System.Resources.ResourceManager": "4.3.0",
          "System.Runtime": "4.3.0",
          "System.Runtime.Extensions": "4.3.0",
          "System.Runtime.Handles": "4.3.0",
          "System.Runtime.InteropServices": "4.3.0",
          "System.Security.Cryptography.Algorithms": "4.3.0",
          "System.Security.Cryptography.Encoding": "4.3.0",
          "System.Security.Cryptography.Primitives": "4.3.0",
          "System.Text.Encoding": "4.3.0",
          "System.Threading": "4.3.0"
        }
      },
      "System.Security.Cryptography.Encoding/4.3.0": {
        "dependencies": {
          "Microsoft.NETCore.Platforms": "1.1.0",
          "System.Collections": "4.3.0",
          "System.Collections.Concurrent": "4.3.0",
          "System.Linq": "4.3.0",
          "System.Resources.ResourceManager": "4.3.0",
          "System.Runtime": "4.3.0",
          "System.Runtime.Extensions": "4.3.0",
          "System.Runtime.Handles": "4.3.0",
          "System.Runtime.InteropServices": "4.3.0",
          "System.Security.Cryptography.Primitives": "4.3.0",
          "System.Text.Encoding": "4.3.0",
          "runtime.native.System.Security.Cryptography.OpenSsl": "4.3.0"
        }
      },
      "System.Security.Cryptography.Primitives/4.3.0": {
        "dependencies": {
          "System.Diagnostics.Debug": "4.3.0",
          "System.Globalization": "4.3.0",
          "System.IO": "4.3.0",
          "System.Resources.ResourceManager": "4.3.0",
          "System.Runtime": "4.3.0",
          "System.Threading": "4.3.0",
          "System.Threading.Tasks": "4.3.0"
        },
        "runtime": {
          "lib/netstandard1.3/System.Security.Cryptography.Primitives.dll": {
            "assemblyVersion": "4.0.1.0",
            "fileVersion": "4.6.24705.1"
          }
        }
      },
      "System.Text.Encoding/4.3.0": {
        "dependencies": {
          "Microsoft.NETCore.Platforms": "1.1.0",
          "Microsoft.NETCore.Targets": "1.1.0",
          "System.Runtime": "4.3.0"
        }
      },
      "System.Text.Encoding.Extensions/4.3.0": {
        "dependencies": {
          "Microsoft.NETCore.Platforms": "1.1.0",
          "Microsoft.NETCore.Targets": "1.1.0",
          "System.Runtime": "4.3.0",
          "System.Text.Encoding": "4.3.0"
        }
      },
      "System.Text.RegularExpressions/4.3.0": {
        "dependencies": {
          "System.Collections": "4.3.0",
          "System.Globalization": "4.3.0",
          "System.Resources.ResourceManager": "4.3.0",
          "System.Runtime": "4.3.0",
          "System.Runtime.Extensions": "4.3.0",
          "System.Threading": "4.3.0"
        },
        "runtime": {
          "lib/netstandard1.6/System.Text.RegularExpressions.dll": {
            "assemblyVersion": "4.1.1.0",
            "fileVersion": "4.6.24705.1"
          }
        }
      },
      "System.Threading/4.3.0": {
        "dependencies": {
          "System.Runtime": "4.3.0",
          "System.Threading.Tasks": "4.3.0"
        },
        "runtime": {
          "lib/netstandard1.3/System.Threading.dll": {
            "assemblyVersion": "4.0.12.0",
            "fileVersion": "4.6.24705.1"
          }
        }
      },
      "System.Threading.Channels/4.7.1": {
        "dependencies": {
          "System.Threading.Tasks.Extensions": "4.5.4"
        },
        "runtime": {
          "lib/netstandard2.0/System.Threading.Channels.dll": {
            "assemblyVersion": "4.0.2.0",
            "fileVersion": "4.700.20.21406"
          }
        }
      },
      "System.Threading.Tasks/4.3.0": {
        "dependencies": {
          "Microsoft.NETCore.Platforms": "1.1.0",
          "Microsoft.NETCore.Targets": "1.1.0",
          "System.Runtime": "4.3.0"
        }
      },
      "System.Threading.Tasks.Extensions/4.5.4": {
        "dependencies": {
          "System.Runtime.CompilerServices.Unsafe": "4.6.0"
        },
        "runtime": {
          "lib/netstandard2.0/System.Threading.Tasks.Extensions.dll": {
            "assemblyVersion": "4.2.0.1",
            "fileVersion": "4.6.28619.1"
          }
        }
      },
      "System.Threading.ThreadPool/4.3.0": {
        "dependencies": {
          "System.Runtime": "4.3.0",
          "System.Runtime.Handles": "4.3.0"
        },
        "runtime": {
          "lib/netstandard1.3/System.Threading.ThreadPool.dll": {
            "assemblyVersion": "4.0.11.0",
            "fileVersion": "4.6.24705.1"
          }
        }
      },
      "System.ValueTuple/4.5.0": {},
      "System.Xml.ReaderWriter/4.3.1": {
        "dependencies": {
          "System.Collections": "4.3.0",
          "System.Diagnostics.Debug": "4.3.0",
          "System.Globalization": "4.3.0",
          "System.IO": "4.3.0",
          "System.IO.FileSystem": "4.3.0",
          "System.IO.FileSystem.Primitives": "4.3.0",
          "System.Resources.ResourceManager": "4.3.0",
          "System.Runtime": "4.3.0",
          "System.Runtime.Extensions": "4.3.0",
          "System.Runtime.InteropServices": "4.3.0",
          "System.Text.Encoding": "4.3.0",
          "System.Text.Encoding.Extensions": "4.3.0",
          "System.Text.RegularExpressions": "4.3.0",
          "System.Threading.Tasks": "4.3.0",
          "System.Threading.Tasks.Extensions": "4.5.4"
        },
        "runtime": {
          "lib/netstandard1.3/System.Xml.ReaderWriter.dll": {
            "assemblyVersion": "4.1.0.0",
            "fileVersion": "4.6.26011.1"
          }
        }
      }
    }
  },
  "libraries": {
    "Core/1.0.0": {
      "type": "project",
      "serviceable": false,
      "sha512": ""
    },
    "AutoMapper/10.1.0": {
      "type": "package",
      "serviceable": true,
      "sha512": "sha512-qxn9+PpQJD53PAUHGXW3HTcq6Rxbv3Pyq/jTcc60ZYwOygyqUfHIY3HBChKbDwtTHdlwlQqJeJ1ckVcaoytxxw==",
      "path": "automapper/10.1.0",
      "hashPath": "automapper.10.1.0.nupkg.sha512"
    },
    "AutoMapper.Extensions.Microsoft.DependencyInjection/8.1.0": {
      "type": "package",
      "serviceable": true,
      "sha512": "sha512-dQyGCAYcHbGuimVvCMu4Ea2S1oYOlgO9XfVdClmY5wgygJMZoS57emPzH0qNfknmtzMm4QbDO9i237W5IDjU1A==",
      "path": "automapper.extensions.microsoft.dependencyinjection/8.1.0",
      "hashPath": "automapper.extensions.microsoft.dependencyinjection.8.1.0.nupkg.sha512"
    },
    "Automatonymous/5.1.1": {
      "type": "package",
      "serviceable": true,
      "sha512": "sha512-Cyzi+JrQ0f2GF9ouy2DptdCPQVGrWSl0oFI//GokvKilgjaffuGd/jm0nZ+iKS1M7aPP2/I2E41216N+pEGAgw==",
      "path": "automatonymous/5.1.1",
      "hashPath": "automatonymous.5.1.1.nupkg.sha512"
    },
    "BCrypt.Net-Next/4.0.2": {
      "type": "package",
      "serviceable": true,
      "sha512": "sha512-LyNKpIpr4GraRD9+xlTviyxxbZpF6J4xJf7DvraC1mR8PSN/KonGc4rt8C/fjkD3vaEvgA7BcvsbHFCOjgczyQ==",
      "path": "bcrypt.net-next/4.0.2",
      "hashPath": "bcrypt.net-next.4.0.2.nupkg.sha512"
    },
    "FluentValidation/9.3.0": {
      "type": "package",
      "serviceable": true,
      "sha512": "sha512-C44l6Ih+YwpED/TsXfl6LIq6Z4wLXahstnr6T70uUg1Hs7/bLBKKAo9Nl0sLhVjDE8TA+fF+O3IM4nDrwabcSQ==",
      "path": "fluentvalidation/9.3.0",
      "hashPath": "fluentvalidation.9.3.0.nupkg.sha512"
    },
    "GreenPipes/4.0.0": {
      "type": "package",
      "serviceable": true,
      "sha512": "sha512-8tn5bc/yFwRgs/8CSGkFydvovHMgZoY5/PPPVyDCh/z5sZg+TYHCm4Zm8t3BczqF66O2LFq9R4Zr8cpjhp9GWQ==",
      "path": "greenpipes/4.0.0",
      "hashPath": "greenpipes.4.0.0.nupkg.sha512"
    },
    "JWT/7.3.1": {
      "type": "package",
      "serviceable": true,
      "sha512": "sha512-49Kqw+WdiUuMVTDZfbm+oO1GOX3SCGQWyQV+G99CNcj4+NzF+harF79u3y0xaEbCwHPkV0S0y3/oufRRj5IrJw==",
      "path": "jwt/7.3.1",
      "hashPath": "jwt.7.3.1.nupkg.sha512"
    },
    "MassTransit/7.1.5-develop.3276": {
      "type": "package",
      "serviceable": true,
      "sha512": "sha512-bvdWDLJINMBQqyUPhMnDnPhz0ylK+dR2jF5V+mn7hQEw53e88KuId8oxHMoU4LiDMddkhJGt1xwV4ReDSZkUVw==",
      "path": "masstransit/7.1.5-develop.3276",
      "hashPath": "masstransit.7.1.5-develop.3276.nupkg.sha512"
    },
    "Microsoft.Bcl.AsyncInterfaces/1.1.1": {
      "type": "package",
      "serviceable": true,
      "sha512": "sha512-yuvf07qFWFqtK3P/MRkEKLhn5r2UbSpVueRziSqj0yJQIKFwG1pq9mOayK3zE5qZCTs0CbrwL9M6R8VwqyGy2w==",
      "path": "microsoft.bcl.asyncinterfaces/1.1.1",
      "hashPath": "microsoft.bcl.asyncinterfaces.1.1.1.nupkg.sha512"
    },
    "Microsoft.CSharp/4.7.0": {
      "type": "package",
      "serviceable": true,
      "sha512": "sha512-pTj+D3uJWyN3My70i2Hqo+OXixq3Os2D1nJ2x92FFo6sk8fYS1m1WLNTs0Dc1uPaViH0YvEEwvzddQ7y4rhXmA==",
      "path": "microsoft.csharp/4.7.0",
      "hashPath": "microsoft.csharp.4.7.0.nupkg.sha512"
    },
    "Microsoft.Extensions.DependencyInjection.Abstractions/3.0.0": {
      "type": "package",
      "serviceable": true,
      "sha512": "sha512-ofQRroDlzJ0xKOtzNuaVt6QKNImFkhkG0lIMpGl7PtXnIf5SuLWBeiQZAP8DNSxDBJJdcsPkiJiMYK2WA5H8dQ==",
      "path": "microsoft.extensions.dependencyinjection.abstractions/3.0.0",
      "hashPath": "microsoft.extensions.dependencyinjection.abstractions.3.0.0.nupkg.sha512"
    },
    "Microsoft.Extensions.Logging.Abstractions/2.1.1": {
      "type": "package",
      "serviceable": true,
      "sha512": "sha512-XRzK7ZF+O6FzdfWrlFTi1Rgj2080ZDsd46vzOjadHUB0Cz5kOvDG8vI7caa5YFrsHQpcfn0DxtjS4E46N4FZsA==",
      "path": "microsoft.extensions.logging.abstractions/2.1.1",
      "hashPath": "microsoft.extensions.logging.abstractions.2.1.1.nupkg.sha512"
    },
    "Microsoft.Extensions.Options/3.0.0": {
      "type": "package",
      "serviceable": true,
      "sha512": "sha512-aZuVhN/TC872Yb55nrb7an82sfSAdNYxIyzu3zbYHOnhwal5hdkBUxzuoYj1khI2sw0tWq6i82i624zEFmiJhg==",
      "path": "microsoft.extensions.options/3.0.0",
      "hashPath": "microsoft.extensions.options.3.0.0.nupkg.sha512"
    },
    "Microsoft.Extensions.Primitives/3.0.0": {
      "type": "package",
      "serviceable": true,
      "sha512": "sha512-6gwewTbmOh+ZVBicVkL1XRp79sx4O7BVY6Yy+7OYZdwn3pyOKe9lOam+3gXJ3TZMjhJZdV0Ub8hxHt2vkrmN5Q==",
      "path": "microsoft.extensions.primitives/3.0.0",
      "hashPath": "microsoft.extensions.primitives.3.0.0.nupkg.sha512"
    },
    "Microsoft.IdentityModel.JsonWebTokens/5.6.0": {
      "type": "package",
      "serviceable": true,
      "sha512": "sha512-0q0U1W+gX1jmfmv7uU7GXFGB518atmSwucxsVwPGpuaGS3jwd2tUi+Gau+ezxR6oAFEBFKG9lz/fxRZzGMeDXg==",
      "path": "microsoft.identitymodel.jsonwebtokens/5.6.0",
      "hashPath": "microsoft.identitymodel.jsonwebtokens.5.6.0.nupkg.sha512"
    },
    "Microsoft.IdentityModel.Logging/5.6.0": {
      "type": "package",
      "serviceable": true,
      "sha512": "sha512-zEDrfEVW5x5w2hbTV94WwAcWvtue5hNTXYqoPh3ypF6U8csm09JazEYy+VPp2RtczkyMfcsvWY9Fea17e+isYQ==",
      "path": "microsoft.identitymodel.logging/5.6.0",
      "hashPath": "microsoft.identitymodel.logging.5.6.0.nupkg.sha512"
    },
    "Microsoft.IdentityModel.Tokens/5.6.0": {
      "type": "package",
      "serviceable": true,
      "sha512": "sha512-C3OqR3QfBQ7wcC7yAsdMQqay87OsV6yWPYG/Ai3n7dvmWIGkouQhXoVxRP0xz3cAFL4hxZBXyw4aLTC421PaMg==",
      "path": "microsoft.identitymodel.tokens/5.6.0",
      "hashPath": "microsoft.identitymodel.tokens.5.6.0.nupkg.sha512"
    },
    "Microsoft.NETCore.Platforms/1.1.0": {
      "type": "package",
      "serviceable": true,
      "sha512": "sha512-kz0PEW2lhqygehI/d6XsPCQzD7ff7gUJaVGPVETX611eadGsA3A877GdSlU0LRVMCTH/+P3o2iDTak+S08V2+A==",
      "path": "microsoft.netcore.platforms/1.1.0",
      "hashPath": "microsoft.netcore.platforms.1.1.0.nupkg.sha512"
    },
    "Microsoft.NETCore.Targets/1.1.0": {
      "type": "package",
      "serviceable": true,
      "sha512": "sha512-aOZA3BWfz9RXjpzt0sRJJMjAscAUm3Hoa4UWAfceV9UTYxgwZ1lZt5nO2myFf+/jetYQo4uTP7zS8sJY67BBxg==",
      "path": "microsoft.netcore.targets/1.1.0",
      "hashPath": "microsoft.netcore.targets.1.1.0.nupkg.sha512"
    },
    "NETStandard.Library/2.0.3": {
      "type": "package",
      "serviceable": true,
      "sha512": "sha512-st47PosZSHrjECdjeIzZQbzivYBJFv6P2nv4cj2ypdI204DO+vZ7l5raGMiX4eXMJ53RfOIg+/s4DHVZ54Nu2A==",
      "path": "netstandard.library/2.0.3",
      "hashPath": "netstandard.library.2.0.3.nupkg.sha512"
    },
    "NewId/3.0.3": {
      "type": "package",
      "serviceable": true,
      "sha512": "sha512-72cBqYQ+pZpsfuTerhi5Q/ZkfK81s/Dkz2u0WNytirWVLktUm6sy4mRNepM+DL1AB0V61QlYesZHDf0wlmMU5A==",
      "path": "newid/3.0.3",
      "hashPath": "newid.3.0.3.nupkg.sha512"
    },
    "Newtonsoft.Json/11.0.2": {
      "type": "package",
      "serviceable": true,
      "sha512": "sha512-IvJe1pj7JHEsP8B8J8DwlMEx8UInrs/x+9oVY+oCD13jpLu4JbJU2WCIsMRn5C4yW9+DgkaO8uiVE5VHKjpmdQ==",
      "path": "newtonsoft.json/11.0.2",
      "hashPath": "newtonsoft.json.11.0.2.nupkg.sha512"
    },
    "Newtonsoft.Json.Bson/1.0.1": {
      "type": "package",
      "serviceable": true,
      "sha512": "sha512-5PYT/IqQ+UK31AmZiSS102R6EsTo+LGTSI8bp7WAUqDKaF4wHXD8U9u4WxTI1vc64tYi++8p3dk3WWNqPFgldw==",
      "path": "newtonsoft.json.bson/1.0.1",
      "hashPath": "newtonsoft.json.bson.1.0.1.nupkg.sha512"
    },
    "runtime.debian.8-x64.runtime.native.System.Security.Cryptography.OpenSsl/4.3.0": {
      "type": "package",
      "serviceable": true,
      "sha512": "sha512-HdSSp5MnJSsg08KMfZThpuLPJpPwE5hBXvHwoKWosyHHfe8Mh5WKT0ylEOf6yNzX6Ngjxe4Whkafh5q7Ymac4Q==",
      "path": "runtime.debian.8-x64.runtime.native.system.security.cryptography.openssl/4.3.0",
      "hashPath": "runtime.debian.8-x64.runtime.native.system.security.cryptography.openssl.4.3.0.nupkg.sha512"
    },
    "runtime.fedora.23-x64.runtime.native.System.Security.Cryptography.OpenSsl/4.3.0": {
      "type": "package",
      "serviceable": true,
      "sha512": "sha512-+yH1a49wJMy8Zt4yx5RhJrxO/DBDByAiCzNwiETI+1S4mPdCu0OY4djdciC7Vssk0l22wQaDLrXxXkp+3+7bVA==",
      "path": "runtime.fedora.23-x64.runtime.native.system.security.cryptography.openssl/4.3.0",
      "hashPath": "runtime.fedora.23-x64.runtime.native.system.security.cryptography.openssl.4.3.0.nupkg.sha512"
    },
    "runtime.fedora.24-x64.runtime.native.System.Security.Cryptography.OpenSsl/4.3.0": {
      "type": "package",
      "serviceable": true,
      "sha512": "sha512-c3YNH1GQJbfIPJeCnr4avseugSqPrxwIqzthYyZDN6EuOyNOzq+y2KSUfRcXauya1sF4foESTgwM5e1A8arAKw==",
      "path": "runtime.fedora.24-x64.runtime.native.system.security.cryptography.openssl/4.3.0",
      "hashPath": "runtime.fedora.24-x64.runtime.native.system.security.cryptography.openssl.4.3.0.nupkg.sha512"
    },
    "runtime.native.System.Security.Cryptography.Apple/4.3.0": {
      "type": "package",
      "serviceable": true,
      "sha512": "sha512-DloMk88juo0OuOWr56QG7MNchmafTLYWvABy36izkrLI5VledI0rq28KGs1i9wbpeT9NPQrx/wTf8U2vazqQ3Q==",
      "path": "runtime.native.system.security.cryptography.apple/4.3.0",
      "hashPath": "runtime.native.system.security.cryptography.apple.4.3.0.nupkg.sha512"
    },
    "runtime.native.System.Security.Cryptography.OpenSsl/4.3.0": {
      "type": "package",
      "serviceable": true,
      "sha512": "sha512-NS1U+700m4KFRHR5o4vo9DSlTmlCKu/u7dtE5sUHVIPB+xpXxYQvgBgA6wEIeCz6Yfn0Z52/72WYsToCEPJnrw==",
      "path": "runtime.native.system.security.cryptography.openssl/4.3.0",
      "hashPath": "runtime.native.system.security.cryptography.openssl.4.3.0.nupkg.sha512"
    },
    "runtime.opensuse.13.2-x64.runtime.native.System.Security.Cryptography.OpenSsl/4.3.0": {
      "type": "package",
      "serviceable": true,
      "sha512": "sha512-b3pthNgxxFcD+Pc0WSEoC0+md3MyhRS6aCEeenvNE3Fdw1HyJ18ZhRFVJJzIeR/O/jpxPboB805Ho0T3Ul7w8A==",
      "path": "runtime.opensuse.13.2-x64.runtime.native.system.security.cryptography.openssl/4.3.0",
      "hashPath": "runtime.opensuse.13.2-x64.runtime.native.system.security.cryptography.openssl.4.3.0.nupkg.sha512"
    },
    "runtime.opensuse.42.1-x64.runtime.native.System.Security.Cryptography.OpenSsl/4.3.0": {
      "type": "package",
      "serviceable": true,
      "sha512": "sha512-KeLz4HClKf+nFS7p/6Fi/CqyLXh81FpiGzcmuS8DGi9lUqSnZ6Es23/gv2O+1XVGfrbNmviF7CckBpavkBoIFQ==",
      "path": "runtime.opensuse.42.1-x64.runtime.native.system.security.cryptography.openssl/4.3.0",
      "hashPath": "runtime.opensuse.42.1-x64.runtime.native.system.security.cryptography.openssl.4.3.0.nupkg.sha512"
    },
    "runtime.osx.10.10-x64.runtime.native.System.Security.Cryptography.Apple/4.3.0": {
      "type": "package",
      "serviceable": true,
      "sha512": "sha512-kVXCuMTrTlxq4XOOMAysuNwsXWpYeboGddNGpIgNSZmv1b6r/s/DPk0fYMB7Q5Qo4bY68o48jt4T4y5BVecbCQ==",
      "path": "runtime.osx.10.10-x64.runtime.native.system.security.cryptography.apple/4.3.0",
      "hashPath": "runtime.osx.10.10-x64.runtime.native.system.security.cryptography.apple.4.3.0.nupkg.sha512"
    },
    "runtime.osx.10.10-x64.runtime.native.System.Security.Cryptography.OpenSsl/4.3.0": {
      "type": "package",
      "serviceable": true,
      "sha512": "sha512-X7IdhILzr4ROXd8mI1BUCQMSHSQwelUlBjF1JyTKCjXaOGn2fB4EKBxQbCK2VjO3WaWIdlXZL3W6TiIVnrhX4g==",
      "path": "runtime.osx.10.10-x64.runtime.native.system.security.cryptography.openssl/4.3.0",
      "hashPath": "runtime.osx.10.10-x64.runtime.native.system.security.cryptography.openssl.4.3.0.nupkg.sha512"
    },
    "runtime.rhel.7-x64.runtime.native.System.Security.Cryptography.OpenSsl/4.3.0": {
      "type": "package",
      "serviceable": true,
      "sha512": "sha512-nyFNiCk/r+VOiIqreLix8yN+q3Wga9+SE8BCgkf+2BwEKiNx6DyvFjCgkfV743/grxv8jHJ8gUK4XEQw7yzRYg==",
      "path": "runtime.rhel.7-x64.runtime.native.system.security.cryptography.openssl/4.3.0",
      "hashPath": "runtime.rhel.7-x64.runtime.native.system.security.cryptography.openssl.4.3.0.nupkg.sha512"
    },
    "runtime.ubuntu.14.04-x64.runtime.native.System.Security.Cryptography.OpenSsl/4.3.0": {
      "type": "package",
      "serviceable": true,
      "sha512": "sha512-ytoewC6wGorL7KoCAvRfsgoJPJbNq+64k2SqW6JcOAebWsFUvCCYgfzQMrnpvPiEl4OrblUlhF2ji+Q1+SVLrQ==",
      "path": "runtime.ubuntu.14.04-x64.runtime.native.system.security.cryptography.openssl/4.3.0",
      "hashPath": "runtime.ubuntu.14.04-x64.runtime.native.system.security.cryptography.openssl.4.3.0.nupkg.sha512"
    },
    "runtime.ubuntu.16.04-x64.runtime.native.System.Security.Cryptography.OpenSsl/4.3.0": {
      "type": "package",
      "serviceable": true,
      "sha512": "sha512-I8bKw2I8k58Wx7fMKQJn2R8lamboCAiHfHeV/pS65ScKWMMI0+wJkLYlEKvgW1D/XvSl/221clBoR2q9QNNM7A==",
      "path": "runtime.ubuntu.16.04-x64.runtime.native.system.security.cryptography.openssl/4.3.0",
      "hashPath": "runtime.ubuntu.16.04-x64.runtime.native.system.security.cryptography.openssl.4.3.0.nupkg.sha512"
    },
    "runtime.ubuntu.16.10-x64.runtime.native.System.Security.Cryptography.OpenSsl/4.3.0": {
      "type": "package",
      "serviceable": true,
      "sha512": "sha512-VB5cn/7OzUfzdnC8tqAIMQciVLiq2epm2NrAm1E9OjNRyG4lVhfR61SMcLizejzQP8R8Uf/0l5qOIbUEi+RdEg==",
      "path": "runtime.ubuntu.16.10-x64.runtime.native.system.security.cryptography.openssl/4.3.0",
      "hashPath": "runtime.ubuntu.16.10-x64.runtime.native.system.security.cryptography.openssl.4.3.0.nupkg.sha512"
    },
    "System.Buffers/4.5.1": {
      "type": "package",
      "serviceable": true,
      "sha512": "sha512-Rw7ijyl1qqRS0YQD/WycNst8hUUMgrMH4FCn1nNm27M4VxchZ1js3fVjQaANHO5f3sN4isvP4a+Met9Y4YomAg==",
      "path": "system.buffers/4.5.1",
      "hashPath": "system.buffers.4.5.1.nupkg.sha512"
    },
    "System.Collections/4.3.0": {
      "type": "package",
      "serviceable": true,
      "sha512": "sha512-3Dcj85/TBdVpL5Zr+gEEBUuFe2icOnLalmEh9hfck1PTYbbyWuZgh4fmm2ysCLTrqLQw6t3TgTyJ+VLp+Qb+Lw==",
      "path": "system.collections/4.3.0",
      "hashPath": "system.collections.4.3.0.nupkg.sha512"
    },
    "System.Collections.Concurrent/4.3.0": {
      "type": "package",
      "serviceable": true,
      "sha512": "sha512-ztl69Xp0Y/UXCL+3v3tEU+lIy+bvjKNUmopn1wep/a291pVPK7dxBd6T7WnlQqRog+d1a/hSsgRsmFnIBKTPLQ==",
      "path": "system.collections.concurrent/4.3.0",
      "hashPath": "system.collections.concurrent.4.3.0.nupkg.sha512"
    },
    "System.ComponentModel/4.3.0": {
      "type": "package",
      "serviceable": true,
      "sha512": "sha512-VyGn1jGRZVfxnh8EdvDCi71v3bMXrsu8aYJOwoV7SNDLVhiEqwP86pPMyRGsDsxhXAm2b3o9OIqeETfN5qfezw==",
      "path": "system.componentmodel/4.3.0",
      "hashPath": "system.componentmodel.4.3.0.nupkg.sha512"
    },
    "System.ComponentModel.Annotations/4.6.0": {
      "type": "package",
      "serviceable": true,
      "sha512": "sha512-pOd+UhZ3X8xfwKDlgAzowUJNjp8VYVmOHZm++vCd0kq1HZ0zK3mNo2yRXjYgv7Ik/Xi43fmJfND2PLEsQSALCg==",
      "path": "system.componentmodel.annotations/4.6.0",
      "hashPath": "system.componentmodel.annotations.4.6.0.nupkg.sha512"
    },
    "System.ComponentModel.Primitives/4.3.0": {
      "type": "package",
      "serviceable": true,
      "sha512": "sha512-j8GUkCpM8V4d4vhLIIoBLGey2Z5bCkMVNjEZseyAlm4n5arcsJOeI3zkUP+zvZgzsbLTYh4lYeP/ZD/gdIAPrw==",
      "path": "system.componentmodel.primitives/4.3.0",
      "hashPath": "system.componentmodel.primitives.4.3.0.nupkg.sha512"
    },
    "System.Diagnostics.Debug/4.3.0": {
      "type": "package",
      "serviceable": true,
      "sha512": "sha512-ZUhUOdqmaG5Jk3Xdb8xi5kIyQYAA4PnTNlHx1mu9ZY3qv4ELIdKbnL/akbGaKi2RnNUWaZsAs31rvzFdewTj2g==",
      "path": "system.diagnostics.debug/4.3.0",
      "hashPath": "system.diagnostics.debug.4.3.0.nupkg.sha512"
    },
    "System.Diagnostics.DiagnosticSource/4.7.1": {
      "type": "package",
      "serviceable": true,
      "sha512": "sha512-j81Lovt90PDAq8kLpaJfJKV/rWdWuEk6jfV+MBkee33vzYLEUsy4gXK8laa9V2nZlLM9VM9yA/OOQxxPEJKAMw==",
      "path": "system.diagnostics.diagnosticsource/4.7.1",
      "hashPath": "system.diagnostics.diagnosticsource.4.7.1.nupkg.sha512"
    },
    "System.Diagnostics.Tracing/4.3.0": {
      "type": "package",
      "serviceable": true,
      "sha512": "sha512-rswfv0f/Cqkh78rA5S8eN8Neocz234+emGCtTF3lxPY96F+mmmUen6tbn0glN6PMvlKQb9bPAY5e9u7fgPTkKw==",
      "path": "system.diagnostics.tracing/4.3.0",
      "hashPath": "system.diagnostics.tracing.4.3.0.nupkg.sha512"
    },
    "System.Globalization/4.3.0": {
      "type": "package",
      "serviceable": true,
      "sha512": "sha512-kYdVd2f2PAdFGblzFswE4hkNANJBKRmsfa2X5LG2AcWE1c7/4t0pYae1L8vfZ5xvE2nK/R9JprtToA61OSHWIg==",
      "path": "system.globalization/4.3.0",
      "hashPath": "system.globalization.4.3.0.nupkg.sha512"
    },
    "System.IdentityModel.Tokens.Jwt/5.6.0": {
      "type": "package",
      "serviceable": true,
      "sha512": "sha512-KMvPpX4exs2fe7Upq5zHMSR4yupc+jy8WG8yjucZL0XvT+r/T0hRvLIe9fP/SeN8/UVxFYBRAkRI5k1zbRGqmA==",
      "path": "system.identitymodel.tokens.jwt/5.6.0",
      "hashPath": "system.identitymodel.tokens.jwt.5.6.0.nupkg.sha512"
    },
    "System.IO/4.3.0": {
      "type": "package",
      "serviceable": true,
      "sha512": "sha512-3qjaHvxQPDpSOYICjUoTsmoq5u6QJAFRUITgeT/4gqkF1bajbSmb1kwSxEA8AHlofqgcKJcM8udgieRNhaJ5Cg==",
      "path": "system.io/4.3.0",
      "hashPath": "system.io.4.3.0.nupkg.sha512"
    },
    "System.IO.FileSystem/4.3.0": {
      "type": "package",
      "serviceable": true,
      "sha512": "sha512-3wEMARTnuio+ulnvi+hkRNROYwa1kylvYahhcLk4HSoVdl+xxTFVeVlYOfLwrDPImGls0mDqbMhrza8qnWPTdA==",
      "path": "system.io.filesystem/4.3.0",
      "hashPath": "system.io.filesystem.4.3.0.nupkg.sha512"
    },
    "System.IO.FileSystem.Primitives/4.3.0": {
      "type": "package",
      "serviceable": true,
      "sha512": "sha512-6QOb2XFLch7bEc4lIcJH49nJN2HV+OC3fHDgsLVsBVBk3Y4hFAnOBGzJ2lUu7CyDDFo9IBWkSsnbkT6IBwwiMw==",
      "path": "system.io.filesystem.primitives/4.3.0",
      "hashPath": "system.io.filesystem.primitives.4.3.0.nupkg.sha512"
    },
    "System.Linq/4.3.0": {
      "type": "package",
      "serviceable": true,
      "sha512": "sha512-5DbqIUpsDp0dFftytzuMmc0oeMdQwjcP/EWxsksIz/w1TcFRkZ3yKKz0PqiYFMmEwPSWw+qNVqD7PJ889JzHbw==",
      "path": "system.linq/4.3.0",
      "hashPath": "system.linq.4.3.0.nupkg.sha512"
    },
    "System.Memory/4.5.4": {
      "type": "package",
      "serviceable": true,
      "sha512": "sha512-1MbJTHS1lZ4bS4FmsJjnuGJOu88ZzTT2rLvrhW7Ygic+pC0NWA+3hgAen0HRdsocuQXCkUTdFn9yHJJhsijDXw==",
      "path": "system.memory/4.5.4",
      "hashPath": "system.memory.4.5.4.nupkg.sha512"
    },
    "System.Numerics.Vectors/4.4.0": {
      "type": "package",
      "serviceable": true,
      "sha512": "sha512-UiLzLW+Lw6HLed1Hcg+8jSRttrbuXv7DANVj0DkL9g6EnnzbL75EB7EWsw5uRbhxd/4YdG8li5XizGWepmG3PQ==",
      "path": "system.numerics.vectors/4.4.0",
      "hashPath": "system.numerics.vectors.4.4.0.nupkg.sha512"
    },
    "System.Reflection/4.3.0": {
      "type": "package",
      "serviceable": true,
      "sha512": "sha512-KMiAFoW7MfJGa9nDFNcfu+FpEdiHpWgTcS2HdMpDvt9saK3y/G4GwprPyzqjFH9NTaGPQeWNHU+iDlDILj96aQ==",
      "path": "system.reflection/4.3.0",
      "hashPath": "system.reflection.4.3.0.nupkg.sha512"
    },
    "System.Reflection.Emit/4.7.0": {
      "type": "package",
      "serviceable": true,
      "sha512": "sha512-VR4kk8XLKebQ4MZuKuIni/7oh+QGFmZW3qORd1GvBq/8026OpW501SzT/oypwiQl4TvT8ErnReh/NzY9u+C6wQ==",
      "path": "system.reflection.emit/4.7.0",
      "hashPath": "system.reflection.emit.4.7.0.nupkg.sha512"
    },
    "System.Reflection.Emit.ILGeneration/4.7.0": {
      "type": "package",
      "serviceable": true,
      "sha512": "sha512-AucBYo3DSI0IDxdUjKksBcQJXPHyoPyrCXYURW1WDsLI4M65Ar/goSHjdnHOAY9MiYDNKqDlIgaYm+zL2hA1KA==",
      "path": "system.reflection.emit.ilgeneration/4.7.0",
      "hashPath": "system.reflection.emit.ilgeneration.4.7.0.nupkg.sha512"
    },
    "System.Reflection.Emit.Lightweight/4.7.0": {
      "type": "package",
      "serviceable": true,
      "sha512": "sha512-a4OLB4IITxAXJeV74MDx49Oq2+PsF6Sml54XAFv+2RyWwtDBcabzoxiiJRhdhx+gaohLh4hEGCLQyBozXoQPqA==",
      "path": "system.reflection.emit.lightweight/4.7.0",
      "hashPath": "system.reflection.emit.lightweight.4.7.0.nupkg.sha512"
    },
    "System.Reflection.Extensions/4.3.0": {
      "type": "package",
      "serviceable": true,
      "sha512": "sha512-rJkrJD3kBI5B712aRu4DpSIiHRtr6QlfZSQsb0hYHrDCZORXCFjQfoipo2LaMUHoT9i1B7j7MnfaEKWDFmFQNQ==",
      "path": "system.reflection.extensions/4.3.0",
      "hashPath": "system.reflection.extensions.4.3.0.nupkg.sha512"
    },
    "System.Reflection.Primitives/4.3.0": {
      "type": "package",
      "serviceable": true,
      "sha512": "sha512-5RXItQz5As4xN2/YUDxdpsEkMhvw3e6aNveFXUn4Hl/udNTCNhnKp8lT9fnc3MhvGKh1baak5CovpuQUXHAlIA==",
      "path": "system.reflection.primitives/4.3.0",
      "hashPath": "system.reflection.primitives.4.3.0.nupkg.sha512"
    },
    "System.Reflection.TypeExtensions/4.7.0": {
      "type": "package",
      "serviceable": true,
      "sha512": "sha512-VybpaOQQhqE6siHppMktjfGBw1GCwvCqiufqmP8F1nj7fTUNtW35LOEt3UZTEsECfo+ELAl/9o9nJx3U91i7vA==",
      "path": "system.reflection.typeextensions/4.7.0",
      "hashPath": "system.reflection.typeextensions.4.7.0.nupkg.sha512"
    },
    "System.Resources.ResourceManager/4.3.0": {
      "type": "package",
      "serviceable": true,
      "sha512": "sha512-/zrcPkkWdZmI4F92gL/TPumP98AVDu/Wxr3CSJGQQ+XN6wbRZcyfSKVoPo17ilb3iOr0cCRqJInGwNMolqhS8A==",
      "path": "system.resources.resourcemanager/4.3.0",
      "hashPath": "system.resources.resourcemanager.4.3.0.nupkg.sha512"
    },
    "System.Runtime/4.3.0": {
      "type": "package",
      "serviceable": true,
      "sha512": "sha512-JufQi0vPQ0xGnAczR13AUFglDyVYt4Kqnz1AZaiKZ5+GICq0/1MH/mO/eAJHt/mHW1zjKBJd7kV26SrxddAhiw==",
      "path": "system.runtime/4.3.0",
      "hashPath": "system.runtime.4.3.0.nupkg.sha512"
    },
    "System.Runtime.CompilerServices.Unsafe/4.6.0": {
      "type": "package",
      "serviceable": true,
      "sha512": "sha512-HxozeSlipUK7dAroTYwIcGwKDeOVpQnJlpVaOkBz7CM4TsE5b/tKlQBZecTjh6FzcSbxndYaxxpsBMz+wMJeyw==",
      "path": "system.runtime.compilerservices.unsafe/4.6.0",
      "hashPath": "system.runtime.compilerservices.unsafe.4.6.0.nupkg.sha512"
    },
    "System.Runtime.Extensions/4.3.0": {
      "type": "package",
      "serviceable": true,
      "sha512": "sha512-guW0uK0fn5fcJJ1tJVXYd7/1h5F+pea1r7FLSOz/f8vPEqbR2ZAknuRDvTQ8PzAilDveOxNjSfr0CHfIQfFk8g==",
      "path": "system.runtime.extensions/4.3.0",
      "hashPath": "system.runtime.extensions.4.3.0.nupkg.sha512"
    },
    "System.Runtime.Handles/4.3.0": {
      "type": "package",
      "serviceable": true,
      "sha512": "sha512-OKiSUN7DmTWeYb3l51A7EYaeNMnvxwE249YtZz7yooT4gOZhmTjIn48KgSsw2k2lYdLgTKNJw/ZIfSElwDRVgg==",
      "path": "system.runtime.handles/4.3.0",
      "hashPath": "system.runtime.handles.4.3.0.nupkg.sha512"
    },
    "System.Runtime.InteropServices/4.3.0": {
      "type": "package",
      "serviceable": true,
      "sha512": "sha512-uv1ynXqiMK8mp1GM3jDqPCFN66eJ5w5XNomaK2XD+TuCroNTLFGeZ+WCmBMcBDyTFKou3P6cR6J/QsaqDp7fGQ==",
      "path": "system.runtime.interopservices/4.3.0",
      "hashPath": "system.runtime.interopservices.4.3.0.nupkg.sha512"
    },
    "System.Runtime.Loader/4.3.0": {
      "type": "package",
      "serviceable": true,
      "sha512": "sha512-DHMaRn8D8YCK2GG2pw+UzNxn/OHVfaWx7OTLBD/hPegHZZgcZh3H6seWegrC4BYwsfuGrywIuT+MQs+rPqRLTQ==",
      "path": "system.runtime.loader/4.3.0",
      "hashPath": "system.runtime.loader.4.3.0.nupkg.sha512"
    },
    "System.Runtime.Numerics/4.3.0": {
      "type": "package",
      "serviceable": true,
      "sha512": "sha512-yMH+MfdzHjy17l2KESnPiF2dwq7T+xLnSJar7slyimAkUh/gTrS9/UQOtv7xarskJ2/XDSNvfLGOBQPjL7PaHQ==",
      "path": "system.runtime.numerics/4.3.0",
      "hashPath": "system.runtime.numerics.4.3.0.nupkg.sha512"
    },
    "System.Security.Cryptography.Algorithms/4.3.0": {
      "type": "package",
      "serviceable": true,
      "sha512": "sha512-W1kd2Y8mYSCgc3ULTAZ0hOP2dSdG5YauTb1089T0/kRcN2MpSAW1izOFROrJgxSlMn3ArsgHXagigyi+ibhevg==",
      "path": "system.security.cryptography.algorithms/4.3.0",
      "hashPath": "system.security.cryptography.algorithms.4.3.0.nupkg.sha512"
    },
    "System.Security.Cryptography.Cng/4.5.0": {
      "type": "package",
      "serviceable": true,
      "sha512": "sha512-WG3r7EyjUe9CMPFSs6bty5doUqT+q9pbI80hlNzo2SkPkZ4VTuZkGWjpp77JB8+uaL4DFPRdBsAY+DX3dBK92A==",
      "path": "system.security.cryptography.cng/4.5.0",
      "hashPath": "system.security.cryptography.cng.4.5.0.nupkg.sha512"
    },
    "System.Security.Cryptography.Csp/4.3.0": {
      "type": "package",
      "serviceable": true,
      "sha512": "sha512-X4s/FCkEUnRGnwR3aSfVIkldBmtURMhmexALNTwpjklzxWU7yjMk7GHLKOZTNkgnWnE0q7+BCf9N2LVRWxewaA==",
      "path": "system.security.cryptography.csp/4.3.0",
      "hashPath": "system.security.cryptography.csp.4.3.0.nupkg.sha512"
    },
    "System.Security.Cryptography.Encoding/4.3.0": {
      "type": "package",
      "serviceable": true,
      "sha512": "sha512-1DEWjZZly9ae9C79vFwqaO5kaOlI5q+3/55ohmq/7dpDyDfc8lYe7YVxJUZ5MF/NtbkRjwFRo14yM4OEo9EmDw==",
      "path": "system.security.cryptography.encoding/4.3.0",
      "hashPath": "system.security.cryptography.encoding.4.3.0.nupkg.sha512"
    },
    "System.Security.Cryptography.Primitives/4.3.0": {
      "type": "package",
      "serviceable": true,
      "sha512": "sha512-7bDIyVFNL/xKeFHjhobUAQqSpJq9YTOpbEs6mR233Et01STBMXNAc/V+BM6dwYGc95gVh/Zf+iVXWzj3mE8DWg==",
      "path": "system.security.cryptography.primitives/4.3.0",
      "hashPath": "system.security.cryptography.primitives.4.3.0.nupkg.sha512"
    },
    "System.Text.Encoding/4.3.0": {
      "type": "package",
      "serviceable": true,
      "sha512": "sha512-BiIg+KWaSDOITze6jGQynxg64naAPtqGHBwDrLaCtixsa5bKiR8dpPOHA7ge3C0JJQizJE+sfkz1wV+BAKAYZw==",
      "path": "system.text.encoding/4.3.0",
      "hashPath": "system.text.encoding.4.3.0.nupkg.sha512"
    },
    "System.Text.Encoding.Extensions/4.3.0": {
      "type": "package",
      "serviceable": true,
      "sha512": "sha512-YVMK0Bt/A43RmwizJoZ22ei2nmrhobgeiYwFzC4YAN+nue8RF6djXDMog0UCn+brerQoYVyaS+ghy9P/MUVcmw==",
      "path": "system.text.encoding.extensions/4.3.0",
      "hashPath": "system.text.encoding.extensions.4.3.0.nupkg.sha512"
    },
    "System.Text.RegularExpressions/4.3.0": {
      "type": "package",
      "serviceable": true,
      "sha512": "sha512-RpT2DA+L660cBt1FssIE9CAGpLFdFPuheB7pLpKpn6ZXNby7jDERe8Ua/Ne2xGiwLVG2JOqziiaVCGDon5sKFA==",
      "path": "system.text.regularexpressions/4.3.0",
      "hashPath": "system.text.regularexpressions.4.3.0.nupkg.sha512"
    },
    "System.Threading/4.3.0": {
      "type": "package",
      "serviceable": true,
      "sha512": "sha512-VkUS0kOBcUf3Wwm0TSbrevDDZ6BlM+b/HRiapRFWjM5O0NS0LviG0glKmFK+hhPDd1XFeSdU1GmlLhb2CoVpIw==",
      "path": "system.threading/4.3.0",
      "hashPath": "system.threading.4.3.0.nupkg.sha512"
    },
    "System.Threading.Channels/4.7.1": {
      "type": "package",
      "serviceable": true,
      "sha512": "sha512-6akRtHK/wab3246t4p5v3HQrtQk8LboOt5T4dtpNgsp3zvDeM4/Gx8V12t0h+c/W9/enUrilk8n6EQqdQorZAA==",
      "path": "system.threading.channels/4.7.1",
      "hashPath": "system.threading.channels.4.7.1.nupkg.sha512"
    },
    "System.Threading.Tasks/4.3.0": {
      "type": "package",
      "serviceable": true,
      "sha512": "sha512-LbSxKEdOUhVe8BezB/9uOGGppt+nZf6e1VFyw6v3DN6lqitm0OSn2uXMOdtP0M3W4iMcqcivm2J6UgqiwwnXiA==",
      "path": "system.threading.tasks/4.3.0",
      "hashPath": "system.threading.tasks.4.3.0.nupkg.sha512"
    },
    "System.Threading.Tasks.Extensions/4.5.4": {
      "type": "package",
      "serviceable": true,
      "sha512": "sha512-zteT+G8xuGu6mS+mzDzYXbzS7rd3K6Fjb9RiZlYlJPam2/hU7JCBZBVEcywNuR+oZ1ncTvc/cq0faRr3P01OVg==",
      "path": "system.threading.tasks.extensions/4.5.4",
      "hashPath": "system.threading.tasks.extensions.4.5.4.nupkg.sha512"
    },
    "System.Threading.ThreadPool/4.3.0": {
      "type": "package",
      "serviceable": true,
      "sha512": "sha512-k/+g4b7vjdd4aix83sTgC9VG6oXYKAktSfNIJUNGxPEj7ryEOfzHHhfnmsZvjxawwcD9HyWXKCXmPjX8U4zeSw==",
      "path": "system.threading.threadpool/4.3.0",
      "hashPath": "system.threading.threadpool.4.3.0.nupkg.sha512"
    },
    "System.ValueTuple/4.5.0": {
      "type": "package",
      "serviceable": true,
      "sha512": "sha512-okurQJO6NRE/apDIP23ajJ0hpiNmJ+f0BwOlB/cSqTLQlw5upkf+5+96+iG2Jw40G1fCVCyPz/FhIABUjMR+RQ==",
      "path": "system.valuetuple/4.5.0",
      "hashPath": "system.valuetuple.4.5.0.nupkg.sha512"
    },
    "System.Xml.ReaderWriter/4.3.1": {
      "type": "package",
      "serviceable": true,
      "sha512": "sha512-fVU1Xp9TEOHv1neQDtcJ4hNfYJ1pjfXzKY3VFeiRZK6HTV4Af2Ihyvq1FkPLrL1hzZhXv7NTmowQnL5DgTzIKA==",
      "path": "system.xml.readerwriter/4.3.1",
      "hashPath": "system.xml.readerwriter.4.3.1.nupkg.sha512"
    }
  }
}